Define a set of truncated observations — trunc_obs • reservr
…
# Number of observations after truncation
N <- length(x)

# Randomly interval censor 30% of observations
cens <- rbinom(N, 1, 0.3) == 1L
xmin <- x
xmax <- x
xmin[cens] <- pmax(tmin[cens], floor(x[cens]))
xmax[cens] <- pmin(tmax[cens], ceiling(x[cens]))
x[cens] <- NA

trunc_obs(x, xmin, xmax, tmin, tmax)
#> # A tibble: 44 × 6
#>         x  xmin  xmax   tmin  tmax     w
#>     <dbl> <dbl> <dbl>  <dbl> <dbl> <dbl>
#>  1 NA     0.832 1     0.832   2.08     1
#>  2 NA     1     2     0.464   2.24     1
#>  3  1.46  1.46  1.46  0.450   2.36     1
#>  4  0.665 0.665 0.665 0.487   1.80     1
#>  5  0.979 0.979 0.979 0.0436  1.11     1
#>  6  1.03  1.03  1.03  0.560   2.19     1
#>  7  0.657 0.657 0.657 0.185   1.98     1
#>  8 NA     1     2     0.612   2.36     1
#>  9  0.526 0.526 0.526 0.240   2.03     1
#> 10  1.60  1.60  1.60  0.668   2.38     1
#> # ℹ 34 more rows
…
